[
  {
    "availabilitiesForMarket": [
      {
        "Availability": false,
        "Id": "1001"
      },
      {
        "Availability": true,
        "Id": "1002"
      }
    ],
    "maxRowCount": 20,
    "pageCount": 2,
    "pageNumber": 1,
    "totalCount": 4
  },
  {
    "availabilitiesForMarket": [
      {
        "Availability": true,
        "Id": "1003"
      },
      {
        "Availability": false,
        "Id": "1004"
      }
    ],
    "maxRowCount": 20,
    "pageCount": 2,
    "pageNumber": 2,
    "totalCount": 4
  }
]
