{
  "content": [
    {
      "contracts": [
        {
          "contract_id": 1932363,
          "contract_number": "1000252/20",
          "documents": [
            {
              "delivery_statuses": null,
              "doc_date": "2022-01-31",
              "doc_id": 1,
              "doc_number": "20220131000001",
              "doc_type": "ACT",
              "edo_enabled_flag": true,
              "reversed_flag": false
            },
            {
              "delivery_statuses": null,
              "doc_date": "2022-01-31",
              "doc_id": 2,
              "doc_number": "20220131000002",
              "doc_type": "INV",
              "edo_enabled_flag": true,
              "reversed_flag": false
            },
            {
              "delivery_statuses": null,
              "doc_date": "2022-01-31",
              "doc_id": 3,
              "doc_number": "20220131000003",
              "doc_type": "BILL",
              "edo_enabled_flag": true,
              "reversed_flag": false
            }
          ],
          "indv_documents_flag": false,
          "tax_rate": 13
        }
      ],
      "delivery_type": "PR",
      "delivery_type_desc": "Почтой России",
      "documents": [],
      "edo_flag": true,
      "edo_operator_code": "2BM",
      "edo_start_date": "2020-08-19",
      "email": "vant.msu@gmail.com",
      "inn": "772271561374",
      "organization": "ООО \"Яндекс.Такси\"",
      "party_id": 11234549,
      "party_name": "Самозанятый Антонов Вадим Сергеевич"
    }
  ],
  "empty": false,
  "first": true,
  "last": false,
  "number": 0,
  "numberOfElements": 5,
  "size": 5,
  "sort": {
    "empty": true,
    "sorted": false,
    "unsorted": true
  },
  "totalElements": 10,
  "totalPages": 2
}
