{
  "first_response": {
    "content": [
      {
        "contracts": [
          {
            "contract_id": 1932363,
            "contract_number": "1000252/20",
            "documents": [
              {
                "delivery_statuses": null,
                "doc_date": "2022-01-31",
                "doc_id": 1,
                "doc_number": "20220131000001",
                "doc_type": "ACT",
                "edo_enabled_flag": true,
                "reversed_flag": false
              },
              {
                "delivery_statuses": null,
                "doc_date": "2022-01-31",
                "doc_id": 2,
                "doc_number": "20220131000002",
                "doc_type": "INV",
                "edo_enabled_flag": true,
                "reversed_flag": false
              },
              {
                "delivery_statuses": null,
                "doc_date": "2022-01-31",
                "doc_id": 3,
                "doc_number": "20220131000003",
                "doc_type": "BILL",
                "edo_enabled_flag": true,
                "reversed_flag": false
              },
              {
                "delivery_statuses": null,
                "doc_date": "2022-01-31",
                "doc_id": 4,
                "doc_number": "20220131000004",
                "doc_type": "INV_ADV",
                "edo_enabled_flag": true,
                "reversed_flag": false
              },
              {
                "delivery_statuses": null,
                "doc_date": "2022-01-31",
                "doc_id": 5,
                "doc_number": "20220131000005",
                "doc_type": "AGENT_REP",
                "edo_enabled_flag": true,
                "reversed_flag": false
              }
            ],
            "indv_documents_flag": false,
            "tax_rate": 13
          }
        ],
        "delivery_type": "PR",
        "delivery_type_desc": "Почтой России",
        "documents": [],
        "edo_flag": true,
        "edo_operator_code": "2BM",
        "edo_start_date": "2020-08-19",
        "email": "vant.msu@gmail.com",
        "inn": "772271561374",
        "organization": "ООО \"Яндекс.Такси\"",
        "party_id": 11234549,
        "party_name": "Самозанятый Антонов Вадим Сергеевич"
      }
    ],
    "empty": false,
    "first": true,
    "last": false,
    "number": 0,
    "numberOfElements": 5,
    "size": 5,
    "sort": {
      "empty": true,
      "sorted": false,
      "unsorted": true
    },
    "totalElements": 10,
    "totalPages": 2
  },
  "second_response": {
    "content": [
      {
        "contracts": [
          {
            "contract_id": 1932363,
            "contract_number": "1000252/20",
            "documents": [
              {
                "delivery_statuses": null,
                "doc_date": "2021-12-31",
                "doc_id": 6,
                "doc_number": "20211231000006",
                "doc_type": "PARTNER_ACT",
                "edo_enabled_flag": true,
                "reversed_flag": false
              },
              {
                "delivery_statuses": null,
                "doc_date": "2021-12-31",
                "doc_id": 7,
                "doc_number": "20211231000007",
                "doc_type": "PARTNER_INV",
                "edo_enabled_flag": true,
                "reversed_flag": false
              },
              {
                "delivery_statuses": null,
                "doc_date": "2021-12-31",
                "doc_id": 8,
                "doc_number": "20211231000008",
                "doc_type": "AGENCY_ACT",
                "edo_enabled_flag": true,
                "reversed_flag": false
              },
              {
                "delivery_statuses": null,
                "doc_date": "2021-12-31",
                "doc_id": 9,
                "doc_number": "20211231000009",
                "doc_type": "AGENCY_INV",
                "edo_enabled_flag": true,
                "reversed_flag": false
              },
              {
                "delivery_statuses": null,
                "doc_date": "2021-01-31",
                "doc_id": 10,
                "doc_number": "20210131000010",
                "doc_type": "ACT",
                "edo_enabled_flag": true,
                "reversed_flag": false
              }
            ],
            "indv_documents_flag": false,
            "tax_rate": 13
          }
        ],
        "delivery_type": "PR",
        "delivery_type_desc": "Почтой России",
        "documents": [],
        "edo_flag": true,
        "edo_operator_code": "2BM",
        "edo_start_date": "2020-08-19",
        "email": "vant.msu@gmail.com",
        "inn": "772271561374",
        "organization": "ООО \"Яндекс.Такси\"",
        "party_id": 11234549,
        "party_name": "Самозанятый Антонов Вадим Сергеевич"
      }
    ],
    "empty": false,
    "first": false,
    "last": true,
    "number": 1,
    "numberOfElements": 5,
    "size": 5,
    "sort": {
      "empty": true,
      "sorted": false,
      "unsorted": true
    },
    "totalElements": 10,
    "totalPages": 2
  }
}
