{
  "1": {
    "courier_services": [
      {
        "id": 1,
        "inn": "909090",
        "name": "NAME1",
        "settings": [
          {
            "citizenship": "ru",
            "project_type": "lavka",
            "region_id": 1,
            "region_name": "Moscow",
            "weight": 100
          },
          {
            "citizenship": "ru",
            "project_type": "eda",
            "region_id": 1,
            "region_name": "Moscow",
            "weight": 100
          },
          {
            "citizenship": "ab",
            "project_type": "eda",
            "region_id": 2,
            "region_name": "Kazan",
            "weight": 100
          },
          {
            "citizenship": "ru",
            "project_type": "taxi_delivery",
            "region_id": 2,
            "region_name": "Kazan",
            "weight": 25
          }
        ],
        "weight": 100
      },
      {
        "id": 2,
        "inn": "808080",
        "name": "NAME2",
        "settings": [
          {
            "citizenship": "ru",
            "project_type": "eda",
            "region_id": 1,
            "region_name": "Moscow",
            "weight": 0
          },
          {
            "citizenship": "ru",
            "project_type": "eda",
            "region_id": 3,
            "region_name": "Saint Petersburg",
            "weight": 100
          },
          {
            "citizenship": "ru",
            "project_type": "eda",
            "region_id": 4,
            "region_name": "Nizhny Novgorod",
            "weight": 100
          }
        ],
        "weight": 11
      },
      {
        "id": 3,
        "inn": "707070",
        "name": "NAME3",
        "settings": [
          {
            "citizenship": "ru",
            "project_type": "lavka",
            "region_id": 1,
            "region_name": "Moscow",
            "weight": 100
          }
        ],
        "weight": 11
      }
    ],
    "meta": {
      "current_page": 1,
      "per_page": 3,
      "total_count": 4,
      "total_pages": 2
    }
  },
  "2": {
    "courier_services": [
      {
        "id": 4,
        "inn": "606060",
        "name": "NAME4",
        "settings": [
          {
            "citizenship": "ki",
            "project_type": "eda",
            "region_id": 16,
            "region_name": "Penza",
            "weight": 11
          },
          {
            "citizenship": "ab",
            "project_type": "taxi_delivery",
            "region_id": 17,
            "region_name": "Pskov",
            "weight": 30
          }
        ],
        "weight": 11
      }
    ],
    "meta": {
      "current_page": 2,
      "per_page": 3,
      "total_count": 4,
      "total_pages": 2
    }
  },
  "3": {
    "courier_services": [],
    "meta": {
      "current_page": 3,
      "per_page": 3,
      "total_count": 4,
      "total_pages": 2
    }
  }
}
