{
  "1": {
    "courier_hubs": [
      {
        "address": "Москва, ул Ленина",
        "billing_types": [
          "self_employed",
          "courier_service"
        ],
        "courier_service_ids": [
          1
        ],
        "id": 1,
        "name": "NAME1",
        "region_id": 1,
        "region_name": "Москва"
      },
      {
        "address": "Москва, ул Ленина",
        "billing_types": [
          "self_employed",
          "courier_service"
        ],
        "courier_service_ids": [
          1,
          2
        ],
        "id": 2,
        "name": "NAME2",
        "region_id": 1,
        "region_name": "Москва"
      },
      {
        "address": "Москва, ул Ленина",
        "billing_types": [
          "self_employed"
        ],
        "courier_service_ids": [
          2
        ],
        "id": 3,
        "name": "NAME3",
        "region_id": 1,
        "region_name": "Москва"
      }
    ],
    "meta": {
      "current_page": 1,
      "per_page": 3,
      "total_count": 4,
      "total_pages": 2
    }
  },
  "2": {
    "courier_hubs": [
      {
        "address": "Москва, ул Ленина",
        "billing_types": [
          "self_employed",
          "some_other"
        ],
        "courier_service_ids": [
          2
        ],
        "id": 4,
        "name": "NAME4",
        "region_id": 1,
        "region_name": "Москва"
      },
      {
        "address": "Москва, ул Ленина",
        "billing_types": [
          "courier_service"
        ],
        "courier_service_ids": [
          3
        ],
        "id": 5,
        "name": "NAME5",
        "region_id": 1,
        "region_name": "Москва"
      },
      {
        "address": "Москва, ул Ленина",
        "billing_types": [
          "courier_service"
        ],
        "courier_service_ids": [
          3
        ],
        "id": 6,
        "name": "NAME6",
        "region_id": 1,
        "region_name": "Москва"
      }
    ],
    "meta": {
      "current_page": 2,
      "per_page": 3,
      "total_count": 4,
      "total_pages": 2
    }
  },
  "3": {
    "courier_hubs": [
      {
        "address": "Москва, ул Ленина",
        "billing_types": [
          "self_employed"
        ],
        "courier_service_ids": [
          4
        ],
        "id": 7,
        "name": "NAME7",
        "region_id": 1,
        "region_name": "Москва"
      },
      {
        "address": "Москва, ул Ленина",
        "billing_types": [
          "self_employed"
        ],
        "courier_service_ids": [
          1
        ],
        "id": 8,
        "name": "NAME8",
        "region_id": 5,
        "region_name": "Москва"
      }
    ],
    "meta": {
      "current_page": 3,
      "per_page": 3,
      "total_count": 4,
      "total_pages": 2
    }
  },
  "4": {
    "courier_hubs": [],
    "meta": {
      "current_page": 3,
      "per_page": 3,
      "total_count": 4,
      "total_pages": 2
    }
  }
}
